1 10 20
100 200 125
201 210 89
900 1000 174
10 1 20
1 1 1
20 20 8
5 6 9
341 682 145
438 817 171
605 128 144
944 539 179
387 112 144
906 246 179
452 433 116
619 680 145
769 300 171
517 221 144
153 472 144
248 692 145
853 634 171
997 875 174
414 610 142
285 274 105
354 604 142
764 369 171
998 764 179
330 408 126
864 431 171
700 264 145
258 927 179
620 318 144
513 584 137
521 200 144
285 109 128
642 122 144
917 745 179
141 580 144
380 424 134
245 733 171
793 506 171
455 719 171
136 894 179
432 493 142
573 465 142
786 511 171
172 502 144
829 139 171
987 643 179
915 158 179
702 483 145
279 573 144
615 331 142
756 210 171
642 791 171
648 816 171
274 688 145
738 242 171
105 476 144
458 392 134
946 567 179
549 318 144
134 163 117
839 681 171
121 144 122
973 387 179
327 513 144
738 951 179
594 687 145
313 424 144
617 181 144
605 739 171
681 998 179
379 573 142
746 221 171
537 685 145
634 388 142
492 904 179
403 781 171
854 711 153
270 107 128
623 286 144
321 790 171
810 253 171
592 532 137
473 259 144
594 238 144
165 856 171
197 582 144
568 347 142
578 611 132
604 694 145
191 249 128
270 548 144
132 416 144
804 747 153
496 562 137
165 362 144
791 241 171
183 468 144
290 536 144
954 903 174
541 217 144
320 147 131
438 892 179
861 175 171
127 651 145
791 429 171
716 901 179
489 290 144
610 317 144
278 862 171
961 345 179
472 394 134
842 361 171
470 519 142
510 401 142
832 930 179
586 745 171
137 982 179
823 340 171
417 656 145
989 481 179
394 175 144
967 187 179
