.........................
----------------------------------------------------------------------
Ran 25 tests in 0.183s

OK
Name             Stmts   Miss Branch BrPart  Cover   Missing
------------------------------------------------------------
Collatz.py          46      0     16      0   100%
TestCollatz.py     107      0      0      0   100%
cache.py             0      0      0      0   100%
------------------------------------------------------------
TOTAL              153      0     16      0   100%
